1080000 - 黑龟手套 - (无描述)
1080001 - 婚礼手套 - (无描述)
1081000 - 红龟手套 - (无描述)
1081001 - 蓝龟手套 - (无描述)
1081002 - 婚礼手套 - (无描述)
1081003 - 白玉咪咪手套 - (无描述)
1081004 - 墨玉咪咪手套 - (无描述)
1081007 - 伊丽莎白手套 - (无描述)
1082000 - 钢制短手套 - (无描述)
1082001 - 白纹短手套 - (无描述)
1082002 - 工地手套 - (无描述)
1082003 - 腕甲 - (无描述)
1082004 - 皮手套 - (无描述)
1082005 - 钢制机器手套 - (无描述)
1082006 - 紫矿机器手套 - (无描述)
1082007 - 青铜机器手套 - (无描述)
1082008 - 铁制轻便手套 - (无描述)
1082009 - 钢铁合金手套 - (无描述)
1082010 - 锂矿合金手套 - (无描述)
1082011 - 黄金合金手套 - (无描述)
1082012 - 青狩猎手套 - (无描述)
1082013 - 蓝狩猎手套 - (无描述)
1082014 - 红狩猎手套 - (无描述)
1082015 - 绿狩猎手套 - (无描述)
1082016 - 蓝命中手套 - (无描述)
1082017 - 红命中手套 - (无描述)
1082018 - 黑命中手套 - (无描述)
1082019 - 魔法手套 - (无描述)
1082020 - 蓝色梅林手套 - (无描述)
1082021 - 绿色梅林手套 - (无描述)
1082022 - 紫色梅林手套 - (无描述)
1082023 - 钢铁指节手套 - (无描述)
1082024 - 朱矿指节手套 - (无描述)
1082025 - 黑指节手套 - (无描述)
1082026 - 蓝贤者手套 - (无描述)
1082027 - 红贤者手套 - (无描述)
1082028 - 黑贤者手套 - (无描述)
1082029 - 褐短指手套 - (无描述)
1082030 - 蓝短指手套 - (无描述)
1082031 - 黑短指手套 - (无描述)
1082032 - 青铜飞侠手套 - (无描述)
1082033 - 锂矿飞侠手套 - (无描述)
1082034 - 黑飞侠手套 - (无描述)
1082035 - 黄轻便手套 - (无描述)
1082036 - 黑轻便手套 - (无描述)
1082037 - 青铜精神手套 - (无描述)
1082038 - 锂矿精神手套 - (无描述)
1082039 - 黑精神手套 - (无描述)
1082040 - 红拳击手套 - (无描述)
1082041 - 蓝拳击手套 - (无描述)
1082042 - 钢铁暴风手套 - (无描述)
1082043 - 银暴风手套 - (无描述)
1082044 - 黄金暴风手套 - (无描述)
1082045 - 黄金追击手套 - (无描述)
1082046 - 钢铁追击手套 - (无描述)
1082047 - 紫矿追击手套 - (无描述)
1082048 - 褐击中手套 - (无描述)
1082049 - 绿击中手套 - (无描述)
1082050 - 黑击中手套 - (无描述)
1082051 - 红守护手套 - (无描述)
1082052 - 蓝守护手套 - (无描述)
1082053 - 黑守护手套 - (无描述)
1082054 - 红神圣手套 - (无描述)
1082055 - 蓝神圣手套 - (无描述)
1082056 - 黑神圣手套 - (无描述)
1082057 - 棒球手套 - (无描述)
1082058 - 蓝色棒球手套 - (无描述)
1082059 - 青铜战斗手套 - (无描述)
1082060 - 蓝战斗手套 - (无描述)
1082061 - 黑战斗手套 - (无描述)
1082062 - 红精灵手套 - (无描述)
1082063 - 蓝精灵手套 - (无描述)
1082064 - 黑精灵手套 - (无描述)
1082065 - 青月手套 - (无描述)
1082066 - 黄月手套 - (无描述)
1082067 - 赤月手套 - (无描述)
1082068 - 青铜名弓手套 - (无描述)
1082069 - 锂矿名弓手套 - (无描述)
1082070 - 黄金名弓手套 - (无描述)
1082071 - 蓝勇气手套 - (无描述)
1082072 - 黄金勇气手套 - (无描述)
1082073 - 黑勇气手套 - (无描述)
1082074 - 黑侠客手套 - (无描述)
1082075 - 红侠客手套 - (无描述)
1082076 - 黄金侠客手套 - (无描述)
1082077 - 白色绷带 - (无描述)
1082078 - 褐色绷带 - (无描述)
1082079 - 黑色绷带 - (无描述)
1082080 - 黑元素手套 - (无描述)
1082081 - 红元素手套 - (无描述)
1082082 - 蓝元素手套 - (无描述)
1082083 - 黑意志手套 - (无描述)
1082084 - 蓝意志手套 - (无描述)
1082085 - 红意志手套 - (无描述)
1082086 - 钢铁封印手套 - (无描述)
1082087 - 黄金封印手套 - (无描述)
1082088 - 黑封印手套 - (无描述)
1082089 - 黄神功手套 - (无描述)
1082090 - 赤神功手套 - (无描述)
1082091 - 黑神功手套 - (无描述)
1082092 - 青铜柔丝手套 - (无描述)
1082093 - 钢铁柔丝手套 - (无描述)
1082094 - 黄金柔丝手套 - (无描述)
1082095 - 青铜名誉手套 - (无描述)
1082096 - 白银名誉手套 - (无描述)
1082097 - 黄金名誉手套 - (无描述)
1082098 - 褐战魂手套 - (无描述)
1082099 - 蓝战魂手套 - (无描述)
1082100 - 黑战魂手套 - (无描述)
1082101 - 圣诞手套 - (无描述)
1082102 - 透明手套 - (无描述)
1082103 - 青铜暗影手套 - (无描述)
1082104 - 锂矿暗影手套 - (无描述)
1082105 - 黑暗影手套 - (无描述)
1082106 - 蓝神眼手套 - (无描述)
1082107 - 黄金神眼手套 - (无描述)
1082108 - 黑神眼手套 - (无描述)
1082109 - 红天使手套 - (无描述)
1082110 - 蓝天使手套 - (无描述)
1082111 - 绿天使手套 - (无描述)
1082112 - 黑天使手套 - (无描述)
1082113 - 剪刀手套 - (无描述)
1082114 - 马尔斯蓝拳套 - (无描述)
1082115 - 马尔斯绿拳套 - (无描述)
1082116 - 马尔斯红拳套 - (无描述)
1082117 - 马尔斯黑拳套 - (无描述)
1082118 - 德古拉蓝手套 - (无描述)
1082119 - 德古拉紫手套 - (无描述)
1082120 - 德古拉红手套 - (无描述)
1082121 - 魔力绿手套 - (无描述)
1082122 - 魔力蓝手套 - (无描述)
1082123 - 魔力黑手套 - (无描述)
1082124 - 基督山手套 - (无描述)
1082125 - 弦影手套(红) - (无描述)
1082126 - 弦影手套(绿) - (无描述)
1082127 - 弦影手套(黑) - (无描述)
1082128 - 裂天手套(绿) - (无描述)
1082129 - 裂天手套(紫) - (无描述)
1082130 - 裂天手套(黑) - (无描述)
1082131 - 杰斯特手套(蓝) - (无描述)
1082132 - 杰斯特手套(绿) - (无描述)
1082133 - 杰斯特手套(红) - (无描述)
1082134 - 杰斯特手套(黑) - (无描述)
1082135 - 侠盗手套(蓝) - (无描述)
1082136 - 侠盗手套(绿) - (无描述)
1082137 - 侠盗手套(红) - (无描述)
1082138 - 侠盗手套(黑) - (无描述)
1082139 - 混天手套(黄) - (无描述)
1082140 - 混天手套(紫) - (无描述)
1082141 - 混天手套(褐) - (无描述)
1082142 - 幻光手套(蓝) - (无描述)
1082143 - 幻光手套(紫) - (无描述)
1082144 - 幻光手套(红) - (无描述)
1082145 - 工地手套(黄) - (无描述)
1082146 - 工地手套(红) - (无描述)
1082147 - 工地手套(蓝) - (无描述)
1082148 - 工地手套(紫) - (无描述)
1082149 - 工地手套(褐) - (无描述)
1082150 - 工地手套(灰) - (无描述)
1082151 - 幻魔手套(绿) - (无描述)
1082152 - 幻魔手套(蓝) - (无描述)
1082153 - 幻魔手套(红) - (无描述)
1082154 - 幻魔手套(黑) - (无描述)
1082155 - 雪人之手 - (无描述)
1082156 - 熊仔手套 - (无描述)
1082157 - 白骨手套 - (无描述)
1082158 - 红色条纹手套 - (无描述)
1082159 - 蓝色条纹手套 - (无描述)
1082160 - 绿色条纹手套 - (无描述)
1082161 - 星纹手套 - (无描述)
1082162 - 爱心手套 - (无描述)
1082163 - 红猎人手套 - (无描述)
1082164 - 蓝色元素手套 - (无描述)
1082166 - 네로 장갑 - (无描述)
1082167 - 黑色格丽纳手套 - (无描述)
1082168 - 青龙手套 - (无描述)
1082169 - 月兔手套 - (无描述)
1082170 - 粉色电子表 - (无描述)
1082171 - 蓝色电子表 - (无描述)
1082172 - 点点手套 - (无描述)
1082173 - 绝缘手套 - (无描述)
1082175 - 马绍尔手套(赤) - (无描述)
1082176 - 马绍尔手套(青) - (无描述)
1082177 - 马绍尔手套(紫) - (无描述)
1082178 - 马绍尔手套(桃) - (无描述)
1082179 - 马绍尔手套(黄) - (无描述)
1082180 - 胶皮手套 - (无描述)
1082183 - 皮腕轮 - (无描述)
1082186 - 铜腕轮 - (无描述)
1082189 - 摸鱼手 - (无描述)
1082192 - 鲨皮手套 - (无描述)
1082195 - 追命 - (无描述)
1082198 - 幽明 - (无描述)
1082201 - 搜魂 - (无描述)
1082204 - 铁手 - (无描述)
1082207 - 青魔手 - (无描述)
1082210 - 深红护腕 - (无描述)
1082213 - 骷髅手套 - (无描述)
1082216 - 杀伐手套 - (无描述)
1082219 - 2013运动会优胜组手套 - (无描述)
1082222 - 机器手套 - (无描述)
1082224 - 熔岩掌套 - (无描述)
1082225 - 冰凌掌套 - (无描述)
1082227 - 黑骷髅手套 - (无描述)
1082229 - 漂漂蝴蝶结 - (无描述)
1082231 - 经典名品手表 - (无描述)
1082232 - 女神的手镯 - (无描述)
1082233 - 牛牛猪手套 - (无描述)
1082234 - 永恒定边手套 - (无描述)
1082235 - 永恒逍遥手套 - (无描述)
1082236 - 永恒白云手套 - (无描述)
1082237 - 永恒探云手套 - (无描述)
1082238 - 永恒抚浪手套 - (无描述)
1082239 - 重生定边手套 - (无描述)
1082240 - 重生逍遥手套 - (无描述)
1082241 - 重生白云手套 - (无描述)
1082242 - 重生探云手套 - (无描述)
1082243 - 重生抚浪手套 - (无描述)
1082244 - 工作人员O的尼龙手套 - (无描述)
1082245 - 工作人员O的皮手套 - (无描述)
1082247 - 可爱小绵羊手套 - (无描述)
1082249 - 荧光亮丽手镯 - (无描述)
1082251 - 朋克手链 - (无描述)
1082252 - 枫叶手套 - (无描述)
1082255 - 枫叶赛车手手套 - (无描述)
1082256 - 印第安老斑鸠拳套 - (无描述)
1082257 - 牛魔王拳套 - (无描述)
1082258 - 沃勒福拳套 - (无描述)
1082259 - 黑暗独角兽拳套 - (无描述)
1082260 - 雪之猫女拳套 - (无描述)
1082263 - 邦妮手套 - (无描述)
1082264 - 战士觉醒系列/手套 - (无描述)
1082246 - 火焰看守手套 - (无描述)
1082254 - 蘑菇王的皮手套 - (无描述)
1082267 - 灰蒙蒙猫爪子 - 台湾玩家设计的道具.
1082262 - 龙的主人的证据 - (无描述)
1082250 - 卑鄙的狼手套 - (无描述)
1082261 - 弗里德的手套 - (无描述)
1082268 - 暗影双刀手套 - (无描述)
1082273 - 胡克的船长手套 - (无描述)
1082272 - 龙神手套 - 当你穿上5个龙神相关的现金道具，龙神的华丽效果将出现在角色身后
1082276 - 冰雪手套 - (无描述)
1082282 - 唤灵斗师手套 - (无描述)
1082283 - 结实的机械手套 - (无描述)
1082284 - 龙神手套 - (无描述)
1082285 - 麦克斯班·雷昂护手 - (无描述)
1082286 - 阿尔玛班·雷昂护手 - (无描述)
1082287 - 帕克斯班·雷昂护手 - (无描述)
1082288 - 诺克斯班·雷昂护手 - (无描述)
1082289 - 科拉班·雷昂护手 - (无描述)
1082290 - 女皇的优质手套 - (无描述)
1082291 - 女皇的卓越手套 - (无描述)
1082295 - 狮心战斗护腕 - (无描述)
1082296 - 龙尾法师手套 - (无描述)
1082297 - 鹰翼哨兵手套 - (无描述)
1082298 - 渡鸦之魂追踪者手套 - (无描述)
1082299 - 鲨齿船长手套 - (无描述)
1082300 - 阿加雷斯血色手套 - (无描述)
1082301 - 艾里格斯血色手套 - (无描述)
1082302 - 伊布斯血色手套 - (无描述)
1082303 - 赫尔巴斯血色手套 - (无描述)
1082304 - 维帕尔血色手套 - (无描述)
1082305 - 强力漫步者重手套 - (无描述)
1082306 - 神秘漫步者重手套 - (无描述)
1082307 - 清风漫步者重手套 - (无描述)
1082308 - 迷雾漫步者重手套 - (无描述)
1082309 - 幸运漫步者重手套 - (无描述)
1082310 - 2011冬季活动月妙手套 - (无描述)
1081006 - 伊丽莎白手套 - (无描述)
1082270 - Lita's Ocean Gloves - (无描述)
1082271 - Lita's Hero Gloves - (无描述)
1082312 - 彩虹护腕 - (无描述)
1082314 - 冒险岛宝石手套 - (无描述)
1082315 - 冒险岛铂金手套 - 使用[8周年]#c枫叶魔方#可以重设获得更好的潜在能力。
1082322 - 雅典娜女神的手镯 - (无描述)
1082328 - 深渊定边手套 - (无描述)
1082329 - 深渊逍遥手套 - (无描述)
1082330 - 深渊白云手套 - (无描述)
1082331 - 深渊探云手套 - (无描述)
1082332 - 深渊抚浪手套 - (无描述)
1082333 - 无双定边手套 - (无描述)
1082334 - 无双逍遥手套 - (无描述)
1082335 - 无双白云手套 - (无描述)
1082336 - 无双探云手套 - (无描述)
1082337 - 无双抚浪手套 - (无描述)
1082338 - 维克特班·雷昂护手 - (无描述)
1082339 - 赫克斯班·雷昂护手 - (无描述)
1082340 - 塞林班·雷昂护手 - (无描述)
1082341 - 斯卡班·雷昂护手 - (无描述)
1082342 - 梅尔班·雷昂护手 - (无描述)
1082343 - 传说枫叶手套 - (无描述)
1082344 - 传说枫叶手套 - (无描述)
1082345 - 传说枫叶手套 - (无描述)
1082346 - 钢制短手套 - (无描述)
1082347 - 魔法手套 - (无描述)
1082348 - 青狩猎手套 - (无描述)
1082349 - 黑短指手套 - (无描述)
1082350 - 胶皮手套 - (无描述)
1082351 - 皮手套 - (无描述)
1082352 - 紫色梅林手套 - (无描述)
1082353 - 绿狩猎手套 - (无描述)
1082354 - 黑飞侠手套 - (无描述)
1082355 - 皮腕轮 - (无描述)
1082356 - 白纹短手套 - (无描述)
1082357 - 蓝贤者手套 - (无描述)
1082358 - 蓝命中手套 - (无描述)
1082359 - 青铜精神手套 - (无描述)
1082360 - 铜腕轮 - (无描述)
1082361 - 紫矿机器手套 - (无描述)
1082362 - 黑守护手套 - (无描述)
1082363 - 黑击中手套 - (无描述)
1082364 - 黄金暴风手套 - (无描述)
1082365 - 摸鱼手 - (无描述)
1082366 - 黑轻便手套 - (无描述)
1082367 - 黑神圣手套 - (无描述)
1082368 - 黄金名弓手套 - (无描述)
1082369 - 黄金追击手套 - (无描述)
1082370 - 鲨皮手套 - (无描述)
1082371 - 朱矿指节手套 - (无描述)
1082372 - 蓝精灵手套 - (无描述)
1082373 - 黄金勇气手套 - (无描述)
1082374 - 黄金侠客手套 - (无描述)
1082375 - 追命 - (无描述)
1082376 - 黄金合金手套 - (无描述)
1082377 - 黑元素手套 - (无描述)
1082378 - 黑意志手套 - (无描述)
1082379 - 黄月手套 - (无描述)
1082380 - 幽明 - (无描述)
1082381 - 黑战斗手套 - (无描述)
1082382 - 黑封印手套 - (无描述)
1082383 - 黑神功手套 - (无描述)
1082384 - 黄金柔丝手套 - (无描述)
1082385 - 搜魂 - (无描述)
1082386 - 黑暗影手套 - (无描述)
1082387 - 黑战魂手套 - (无描述)
1082388 - 黑神眼手套 - (无描述)
1082389 - 黄金名誉手套 - (无描述)
1082390 - 铁手 - (无描述)
1082324 - [派对]透明手套 - (无描述)
1082325 - [派对]经典名品手表 - (无描述)
1082326 - [派对]漂漂蝴蝶结 - (无描述)
1082327 - [派对]粉色电子表 - (无描述)
1082313 - 枫叶超级手套 - (无描述)
1082407 - 军团长的手套 - 军团长假发、军团长外套、军团长手套、军团长靴子、军团长披风，一起穿戴时打入#c/黑暗力量#命令语时会发动特殊的动作.
1082408 - 精灵王的手套 - 精灵王假发、精灵王服饰、精灵王手套、精灵王靴子、精灵王披风，一起穿戴时打入#c/精灵之力#命令语时会发动特殊的动作.
1082391 - 传说冒险岛手套 - (无描述)
1082392 - 英雄手套 - 送给武陵道场最强挑战者的传说中的手套。
1082393 - 武公的手套 - (无描述)
1082394 - 萧公的手套 - (无描述)
1082400 - 海军舰长手套 - (无描述)
1082401 - 运动会优胜组手套 - (无描述)
1082416 - 君主英勇手套 - (无描述)
1082417 - 君主记忆手套 - (无描述)
1082418 - 君主锋锐手套 - (无描述)
1082419 - 君主迅捷手套 - (无描述)
1082420 - 君主炽热手套 - (无描述)
1082424 - 3x3 手套 - (无描述)
1082430 - 紫金枫叶手套 - (无描述)
1082431 - 梦幻好友手镯 - (无描述)
1082433 - 专属紫金枫叶手套 - (无描述)
1082438 - 风暴手套 - (无描述)
1082439 - 枫叶手套 - (无描述)
1082440 - 枫叶手套 - (无描述)
1082441 - 枫叶手套 - (无描述)
1082447 - 扎昆的石拳 - 扎昆的石头形成的拳头。不知道是八个拳头中的第几个。
1082466 - 豪华阿加雷斯手套 - (无描述)
1082467 - 豪华艾里格斯手套 - (无描述)
1082468 - 豪华伊布斯手套 - (无描述)
1082469 - 豪华赫尔巴斯手套 - (无描述)
1082470 - 豪华维帕尔手套 - (无描述)
1082477 - 冒险勇士手套 - (无描述)
1082478 - 绿色通用手套 - (无描述)
1082479 - 绿色通用手套 - (无描述)
1082480 - 绿色通用手套 - (无描述)
1082481 - 绿色通用手套 - (无描述)
1082482 - 绿色通用手套 - (无描述)
1082483 - 紫色高级手套 - (无描述)
1082484 - 紫色高级手套 - (无描述)
1082485 - 紫色高级手套 - (无描述)
1082486 - 紫色高级手套 - (无描述)
1082487 - 紫色高级手套 - (无描述)
1082488 - 次元手套 - (无描述)
1082489 - 高级次元手套 - (无描述)
1082494 - 斯泰拉手套 - (无描述)
1082498 - 终极手套 - null
1082499 - 争执手套 - (无描述)
1082501 - 黑暗力量手套 - 和#c黑暗力量之角、黑暗力量连身衣、黑暗力量披风、黑暗力量靴#一起装备，可以发挥出惊人的黑暗力量。\n装备5件黑暗力量装备后，输入#c/黑暗力量#，可以变身成强大的黑暗力量形态。该动作#c每10秒#可以进行一次。
1082505 - 尖兵尼奥手套 - (无描述)
1082506 - 皇家英勇手套 - (无描述)
1082507 - 皇家记忆手套 - (无描述)
1082508 - 皇家锋锐手套 - (无描述)
1082509 - 皇家迅捷手套 - (无描述)
1082510 - 皇家炽热手套 - (无描述)
1082515 - 妖精工地手套 - (无描述)
1082516 - 妖精争执手套 - (无描述)
1082533 - 艾利涅的手镯 - (无描述)
1082535 - 圣翼骑士手套 - (无描述)
1082536 - 冒险岛赛手手套 - (无描述)
1082540 - 革命手套 - (无描述)
1082543 - 暴君西亚戴斯手套 - (无描述)
1082544 - 暴君赫尔梅斯手套 - (无描述)
1082545 - 暴君凯伦手套 - (无描述)
1082546 - 暴君利卡昂手套 - (无描述)
1082547 - 暴君阿尔泰手套 - (无描述)
1082512 - 情人节手镯<高级> - (无描述)
1082513 - 情人节手镯<中级> - (无描述)
1082514 - 情人节手镯<低级> - (无描述)
1082518 - 情人节手镯<最高级> - (无描述)
1082490 - 狂龙战士英勇手套 - (无描述)
1082491 - 夜光法师记忆手套 - (无描述)
1082492 - 天使炽热手套 - (无描述)
1082432 - 外星人之手套 - (无描述)
1082423 - 银河战队手套 - 宇宙的能量传递到你的指尖！装备整套银河战队服饰后可以获得特殊效果。
1080003 - 国庆护手-男款 - (无描述)
1080004 - 国庆手套-男款 - (无描述)
1081009 - 国庆护手-女款 - (无描述)
1081010 - 国庆手套-女款 - (无描述)
1082448 - 阿拉伯金镯 - (无描述)
1082493 - 海豹白白手套 - (无描述)
1082500 - 黑暗小恶魔手套 - (无描述)
1082503 - 圣洁天使手镯 - 欧洲冒险岛玩家“Blavy”设计的手镯。
1082495 - 猫咪洛丽塔手套 - (无描述)
1082444 - 脆弱新手骑士手甲 - 新手骑士所用的手套。
1082445 - 脆弱中级骑士手甲 - 与新手装备相比，防护更强。
1082446 - 脆弱高级骑士手甲 - 防护性能优异。设计美观，更具魅力。
1082454 - 传奇新手骑士手甲 - 新手骑士所用的头盔。
1082455 - 中级骑士手甲 - 与新手装备相比，防护更强。
1082456 - 勇敢中级骑士手甲 - 与新手装备相比，防护更强。
1082457 - 智慧中级骑士手甲 - 与新手装备相比，防护更强。
1082458 - 勇敢高级骑士手甲 - 防护性能优异。设计美观，更具魅力。
1082459 - 智慧高级骑士手甲 - 防护性能优异。设计美观，更具魅力。
1082460 - 传奇高级骑士手甲 - 防护性能优异。设计美观，更具魅力。
1082517 - 高尔夫球手套 - (无描述)
1082421 - 海龙手套 - 欧洲玩家 NekoiPL设计的道具
1082422 - 炎龙手套 - 欧洲玩家 NekoiPL设计的道具
1082502 - 蓝缎带猫咪爪 - 欧洲玩家 Burlesque设计的道具
1082504 - 猫咪手套 - 欧洲玩家 Caramelli设计的道具
1082520 - 粉粉绵羊手套 - (无描述)
1082521 - 暗影骑士手套 - (无描述)
1082522 - 金标骑士手套 - (无描述)
1082524 - Blavy天使手镯 - 欧洲的冒险岛玩家“Blavy”所设计的装备。
1082525 - 女妖手套 - (无描述)
1082527 - 高尔夫手套 - (无描述)
1082414 - 白银三叶草手套 - (无描述)
1082415 - 黄金三叶草手套 - (无描述)
1082548 - 星星手镯 - (无描述)
1082552 - 云朵羊手套 - (无描述)
1082519 - 小恐龙云豆手套 - (无描述)
1082511 - 小恐龙绿豆手套 - (无描述)
1082549 - 咯咯嗒手套 - (无描述)
1082551 - 巧可羊手套 - (无描述)
1082556 - 漩涡手套 - (无描述)
1082559 - 凯梅尔兹手套 - (无描述)
1082581 - 巧克力发带装饰 - (无描述)
1082555 - 精灵闪电手套 - (无描述)
1082560 - 어둠의 소악마 장갑 - (无描述)
1082565 - 초콜릿 리본 장식 - (无描述)
1082571 - K군의 고양이 장갑 - K군은 고양이를 너무 사랑한 나머지 스스로가 고양이가 되고자 하였다.
1082572 - 알타이르 글러브 - (无描述)
1082580 - 骑马手套 - (无描述)
1082585 - 林之灵手套 - (无描述)
1082553 - 红色十字架手套 - (无描述)
1082587 - 2014运动会优胜组手套 - (无描述)
1082574 - 스노우 일루전 암  - (无描述)
